%YAML 1.1
%TAG !u! tag:unity3d.com,2011:
--- !u!1001 &2824892691855360007
PrefabInstance:
  m_ObjectHideFlags: 0
  serializedVersion: 2
  m_Modification:
    m_TransformParent: {fileID: 0}
    m_Modifications:
    - target: {fileID: 4355458406424612726, guid: 682f28f8049c2b348982d6cabdfc33c5, type: 3}
      propertyPath: m_Name
      value: Bullet(Shotgun) 1 Variant
      objectReference: {fileID: 0}
    - target: {fileID: 4355458406424612726, guid: 682f28f8049c2b348982d6cabdfc33c5, type: 3}
      propertyPath: m_TagString
      value: Shotgunbullet
      objectReference: {fileID: 0}
    - target: {fileID: 7653151048447808680, guid: 682f28f8049c2b348982d6cabdfc33c5, type: 3}
      propertyPath: m_RootOrder
      value: 0
      objectReference: {fileID: 0}
    - target: {fileID: 7653151048447808680, guid: 682f28f8049c2b348982d6cabdfc33c5, type: 3}
      propertyPath: m_LocalPosition.x
      value: 0
      objectReference: {fileID: 0}
    - target: {fileID: 7653151048447808680, guid: 682f28f8049c2b348982d6cabdfc33c5, type: 3}
      propertyPath: m_LocalPosition.y
      value: 0
      objectReference: {fileID: 0}
    - target: {fileID: 7653151048447808680, guid: 682f28f8049c2b348982d6cabdfc33c5, type: 3}
      propertyPath: m_LocalPosition.z
      value: 0
      objectReference: {fileID: 0}
    - target: {fileID: 7653151048447808680, guid: 682f28f8049c2b348982d6cabdfc33c5, type: 3}
      propertyPath: m_LocalRotation.w
      value: 1
      objectReference: {fileID: 0}
    - target: {fileID: 7653151048447808680, guid: 682f28f8049c2b348982d6cabdfc33c5, type: 3}
      propertyPath: m_LocalRotation.x
      value: 0
      objectReference: {fileID: 0}
    - target: {fileID: 7653151048447808680, guid: 682f28f8049c2b348982d6cabdfc33c5, type: 3}
      propertyPath: m_LocalRotation.y
      value: 0
      objectReference: {fileID: 0}
    - target: {fileID: 7653151048447808680, guid: 682f28f8049c2b348982d6cabdfc33c5, type: 3}
      propertyPath: m_LocalRotation.z
      value: 0
      objectReference: {fileID: 0}
    - target: {fileID: 7653151048447808680, guid: 682f28f8049c2b348982d6cabdfc33c5, type: 3}
      propertyPath: m_LocalEulerAnglesHint.x
      value: 0
      objectReference: {fileID: 0}
    - target: {fileID: 7653151048447808680, guid: 682f28f8049c2b348982d6cabdfc33c5, type: 3}
      propertyPath: m_LocalEulerAnglesHint.y
      value: 0
      objectReference: {fileID: 0}
    - target: {fileID: 7653151048447808680, guid: 682f28f8049c2b348982d6cabdfc33c5, type: 3}
      propertyPath: m_LocalEulerAnglesHint.z
      value: 0
      objectReference: {fileID: 0}
    - target: {fileID: 8153548283302402291, guid: 682f28f8049c2b348982d6cabdfc33c5, type: 3}
      propertyPath: m_Speed
      value: 4500
      objectReference: {fileID: 0}
    m_RemovedComponents: []
  m_SourcePrefab: {fileID: 100100000, guid: 682f28f8049c2b348982d6cabdfc33c5, type: 3}
